{
    "page": 1,
    "limit": 20,
    "explicit": false,
    "total": 1000,
    "has_more": true,
    "list": [
        {
            "id": "x8wr8a0",
            "title": "Gualtieri \"Baglioni ha trasposto nelle canzoni suo rapporto con Roma\"",
            "description": "ROMA (ITALPRESS) - “È stata una cerimonia bellissima. Claudio Baglioni ci ha regalato non un discorso di circostanza ma ha ricordato il suo rapporto con la città. La storia della sua famiglia. Ha dedicato questa Lupa ai suoi genitori”. Lo ha dichiarato il sindaco di Roma, Roberto Gualtieri, a margine della cerimonia di consegna della Lupa Capitolina a Claudio Baglioni.  <br />“Ci ha raccontato il suo sentirsi parte dei quartieri in cui è cresciuto, spostandosi nelle periferie e sviluppando un rapporto con la nostra città che ha trasposto nelle canzoni che tutti amano e che sono dei gioielli”, ha sottolineato. <br />Sull’attenzione di Baglioni verso i diritti umani, il Sindaco ha aggiunto “ha fatto tante cose importanti sempre con il suo grande stile per aiutare le persone, a volte in silenzio e con discrezione”. Prima della consegna i due si sono incontrati privatamente per suonare insieme i due brani “Un po di più” - “E tu come stai?”, ha rivelato Gualtieri. Poi su un possibile ritorno prima dell’addio a Centocelle per suonare ha aggiunto: “Ama tantissimo Centocelle, speriamo che l’addio alle scene avvenga il più tardi possibile. Non avrei fretta nell’invocarlo”. Invece su un concerto al Circo Massimo, ha detto: “È lui che sceglie dove suonare. Ha battuto tutti i record non solo dei dischi venduti ma anche delle performance dal vivo. Ha una grandissima attenzione alla qualità che non tutti hanno”. xl5/vbo",
            "thumbnail_120_url": "https://s2.dmcdn.net/v/W7AAe1c6fmZL5aZpO/x120",
            "created_time": 1713019927
        },
        {
            "id": "x8wr89s",
            "title": "Janasena Party Official YouTube Channel Hack.. ఇది ఎవరి పని.. ?? | Oneindia Telugu",
            "description": "Official YouTube Channel of the Janasena Party Has Been Hacked By Bitcoin Hackers. <br />ఎన్నికల ముందు పవన్ కళ్యాణ్ జనసేన పార్టీకి ఊహించని షాక్ తగిలింది. ఆ పార్టీకి చెందిన అధికార యూట్యూబ్ ఛానల్ ని హ్యాకర్లు హ్యాక్ చేశారు. <br /> <br />#Janasena <br />#JanasenaYouTubeChannel <br />#JanasenaYouTubeChannelHacked <br />#PawanKalyan <br />#JanasenaOfficial <br />#AndhraPradeshAssemblyElections2024 <br />#APAssemblyElections2024 <br />#LoksabhaElections2024 <br />#AndhraPradesh",
            "thumbnail_120_url": "https://s2.dmcdn.net/v/W7AAW1c6fmag47tj_/x120",
            "created_time": 1713019927
        },
        {
            "id": "x8wr89i",
            "title": "Πολωνία: Πρώτο ιστορικό βήμα για την αλλαγή στο νόμο των αμβλώσεων",
            "description": "Τέσσερις προτάσεις για αλλαγή του νόμου πέρασαν από τη Βουλή",
            "thumbnail_120_url": "https://s2.dmcdn.net/v/W7AAM1c6fmPhyoB64/x120",
            "created_time": 1713019923
        },
        {
            "id": "x8wr89o",
            "title": "Iran saisit un porte-conteneurs portugais près du détroit d'Ormuz, sur fond de tensions avec Israel",
            "description": "L'unité des forces spéciales de la marine des Gardiens de la révolution a mené l'attaque contre le MSC Aries, battant pavillon portugais, un porte-conteneurs associé à la société Zodiac Maritime (Londres). Zodiac Maritime fait partie du groupe Zodiac du milliardaire israélien Eyal Ofer.",
            "thumbnail_120_url": "https://s2.dmcdn.net/v/W7AAS1c6fmGyY_J9f/x120",
            "created_time": 1713019910
        },
        {
            "id": "x8wr87y",
            "title": "SON DAKİKA | Antalya'daki teleferik faciasında son durum",
            "description": "Antalya'daki teleferik faicasında son durum belli oldu. İçişleri Bakanı Ali Yerlikaya, Antalya Konyaaltı'ndaki Sarısu teleferik hattında mahsur kalan vatandaşları kurtarma çalışmalarının tamamlandığını belirtti.<br />",
            "thumbnail_120_url": "https://s2.dmcdn.net/v/W7A9U1c6fmD5hkwh-/x120",
            "created_time": 1713019909
        },
        {
            "id": "x8wr85o",
            "title": "本地走私集团趁繁忙时段   走私香烟及电子烟至新加坡",
            "description": "新闻报报看 | 衔接大马和新加坡的陆路关卡每天都有几十万人出入境，本地走私集团也趁着繁忙时段，想方设法企图将香烟和电子烟走私到邻国新加坡。如今，走私集团还改变了他们的走私策略！（主播：颜江瀚、黄宇恒）",
            "thumbnail_120_url": "https://s2.dmcdn.net/v/W7A8C1c6flray-OmZ/x120",
            "created_time": 1713019880
        },
        {
            "id": "x8wr884",
            "title": "Akın akın dönüyorlar Trakya'ya gelen tatilciler dönüş yoluna geçti",
            "description": "Ramazan Bayramı tatilinin 8'inci gününde tatilcilerin Tekirdağ-İstanbul yolunda dönüş yolculuğu yoğun bir şekilde sürüyor. Dönüş çilesi dron ile de görüntülendi. <br>Akın akın dönüyorlar<br />Trakya'ya gelen tatilciler dönüş yoluna geçti<br>TEKİRDAĞ -  <br />Trakya'ya gelen tatilciler, 9 günlük Ramazan Bayramı tatilinin 8. gününde dönüş yolculuğuna başladı. Son günün yoğunluğuna kalmak istemeyen tatilcilerin akşam saatlerinde dönüş yolculuğuna başlaması ile Malkara, Süleymanpaşa, Çorlu ve oradan da İstanbul'a bağlanan yollarda dönüş yoğunluğu yaşanıyor.<br />Yoğunlukta dönüş güzergahı üzerinde bulunan ışıklı kavşaklarda zaman zaman trafik durma noktasına geldi.<br />Tekirdağ İl Emniyet Müdürlüğü ve Jandarma Komutanlığına bağlı Trafik Birimleri de yolda herhangi bir olumsuzluk yaşanmaması için denetimlerini sıklaştırdı.<br />Düne kadar İstanbul'dan Tekirdağ istikametine doğru yoğun olan yollarda bu sefer ibre tersine dönerek Tekirdağ'dan İstanbul istikametine doğru yoğunluk yaşanıyor.<br /><br />hbrlr1.com/cbflltafkckckl</a>",
            "thumbnail_120_url": "https://s1.dmcdn.net/v/W7A9a1c6fldGpM4Fp/x120",
            "created_time": 1713019874
        },
        {
            "id": "x8wr86i",
            "title": "Taiwan earthquake _ Latest updates on search for survivors.mp4",
            "description": "Latest news updates Taiwan",
            "thumbnail_120_url": "https://s2.dmcdn.net/v/W7A8g1c6fmruVsE_I/x120",
            "created_time": 1713019853
        },
        {
            "id": "x8wr86w",
            "title": "Saat Hasto Sindir Kereta Cepat: Utangnya 70 Tahun Baru Lunas, Belum-Belum Sudah Bocor",
            "description": "JAKARTA, KOMPAS.TV  Sekjen PDI Perjuangan Hasto Kristiyanto soroti soal Kereta Cepat Whoosh yang dikabarkan mengalami atap bocor. <br /> <br />Hal ini disampaikan Hasto saat ditemui di kediaman Ketum PDI Perjuangan Megawati Soekarnoputri pada Jumat (12/4/2024) <br /> <br />Hasto menjawab pertanyaan wartawan terkait posisi PDI Perjuangan di pemerintahan ke depan. <br /> <br />Dirinya kemudian mengaitkan dengan masalah ekonomi di tanah air. <br /> <br />\"Bagaimana dengan utang luar negeri kita, bagaimana dengan tadi ada berita kereta api cepat dengan biaya yang begitu besar, utangnya 70 tahun baru lunas belum-belum sudah bocor airnya masuk,\" ujar Hasto. <br /> <br />Video Editor: Bara Bima <br /> <br />Artikel ini bisa dilihat di :  https://www.kompas.tv/video/500097/saat-hasto-sindir-kereta-cepat-utangnya-70-tahun-baru-lunas-belum-belum-sudah-bocor",
            "thumbnail_120_url": "https://s1.dmcdn.net/v/W7A8u1c6flYBCY16n/x120",
            "created_time": 1713019848
        },
        {
            "id": "x8wr86e",
            "title": "Railway Station पर Lalit Narayan Mishra की जान लेने वालों पर high Court करेगा सुनवाई | वनइंडिया प्लस",
            "description": "Lalit Narayan Mishra: 2 जनवरी 1975 को समस्तीपुर रेलवे स्टेशन (Samastipur Railway Station) पर अटैक हुआ था जिसमें तत्कालीन रेल मंत्री ललित नारायण मिश्र बुरी तरह घायल हो गए थे. एक दिन बाद ही उनकी मौत हो गई. जिसके बाद अब मामला हाईकोर्ट पहुंचा है. <br /> <br />Lalit Narayan Mishra Death, Lalit Narayan Mishra History, Story Of Lalit Narayan Mishra Former Railway Minister Lalit Narayan Mishra, Lalit Kumar Mishra Case In High Court, High Court On Lalit Narayan Mishra, Samastipur Railway Station Lalit Narayan Mishra Death, बिहार, Bihar News, पूर्व रेल मंत्री ललित नारायण मिश्रा की जान कैसे ली, oneindia plus, वनइंडिया प्लस <br /> <br />#LalitNarayanMishra #IndianRailway #Samastipur <br /><br />                ~HT.97~PR.252~ED.110~",
            "thumbnail_120_url": "https://s2.dmcdn.net/v/W7A8c1c6flP0qIwT-/x120",
            "created_time": 1713019847
        },
        {
            "id": "x8wr85s",
            "title": "Le message choquant de Kate Middleton et William sur X : consternation et peine",
            "description": "#PrinceWilliam #soutien #actualité <br /><br />Nouvelles inquiétantes chez les Windsor<br /><br />Depuis quelques semaines, Kate Middleton défraie la chronique. Opérée dans le plus grand secret, la femme du prince William vient de relever au monde entier les coulisses de son cauchemar sanitaire.<br /><br />Un secret bien gardé<br /><br />Comble de l'horreur, son illustre beau-père, le roi Charles III souffre également de la même maladie. Bien entendu, la discrétion des Windsor est plus que jamais de rigueur. À l'heure où nous écrivons ces lignes, personne ne situe la zone exacte de la ou les tumeur(s) maligne(s).<br /><br />Les réactions de la famille royale<br /><br />Apparus à la messe de Pâques, le fils d'Elisabeth II et son épouse Camilla tentent de faire bonne figure. De surcroit, sur les réseaux sociaux, cette absence de l'héritier et de ses enfants ne fait pas taire les rumeurs. Au contraire, dans les tabloïds ou sur la Toile, elles se répandent à la vitesse de la lumière.<br /><br />Un soutien solidaire<br /><br />Femme de son époque, Kate Middleton a pris l'habitude d'utiliser les réseaux sociaux pour communiquer avec ses admirateurs. Aussi, les tabloïds comme les anonymes n'hésitent pas à consulter régulièrement le compte officiel Twitter du couple.<br /><br />Réaction face à l'actualité dramatique<br /><br />Empathiques de nature , Kate Middleton et son époux réagissent immédiatement. \"Choqués et attristés\", ils apportent leur indéfectible soutien par le biais d'un communiqué de presse. Leurs \"pensées\" vont \"à tous ceux qui ont été touchés, y compris les proches des victimes et les secouristes héroïques qui ont risqué leur vie pour en sauver d'autres.”<br /><br />KateMiddleton #PrinceWilliam #soutien #actualité",
            "thumbnail_120_url": "https://s1.dmcdn.net/v/W7A8G1c6fk_Km11F3/x120",
            "created_time": 1713019825
        },
        {
            "id": "x8wr850",
            "title": "Teleferik kabininde mahsur kalanların kurtarıldığı anların yeni görüntüsü ortaya çıktı",
            "description": "",
            "thumbnail_120_url": "https://s1.dmcdn.net/v/W7A7q1c6fkTMwwXyA/x120",
            "created_time": 1713019797
        },
        {
            "id": "x8wr81g",
            "title": "Estados Unidos desplaza varios buques de guerra para defender Israel en caso de ataque iraní",
            "description": "",
            "thumbnail_120_url": "https://s1.dmcdn.net/v/W7A5q1c6fk7XnHxi9/x120",
            "created_time": 1713019773
        },
        {
            "id": "x8wr82q",
            "title": "Navio capturado pelo Irão tem bandeira portuguesa",
            "description": "O Irão capturou um cargueiro com bandeira portuguesa no sábado, no estreito de Ormuz. O navio de carga pertence à Zodiac, uma empresa de um magnata israelita. De acordo com as autoridades portuguesas, não há portugueses a bordo.",
            "thumbnail_120_url": "https://s1.dmcdn.net/v/W7A6Y1c6fjQQ6dRKc/x120",
            "created_time": 1713019729
        },
        {
            "id": "x8wr80i",
            "title": "Turquie : un mort et dix blessés lors d’un accident de téléphérique dans une station balnéaire",
            "description": "En Turquie, près de la station d’Antalya, un pylône de téléphérique s’est effondré ce vendredi 12 avril, provoquant la mort d’une personne. Dix autres ont été blessées, selon les autorités turques. Le ministre de l’Intérieur, Ali Yerlikaya, a déclaré que le décès et les blessures étaient survenus lorsque l’une des cabines du téléphérique de Sarisu-Tunektepe a plongé dans une zone rocheuse à la suite de l’effondrement du pylône. Huit hélicoptères équipés d’une vision nocturne et quelque 600 secouristes ont été appelés pour venir en aide aux 184 personnes bloquées durant la nuit dans les cabines du téléphérique. Ce samedi 13 avril, pour l’heure, 29 passagers demeurent suspendus au-dessus du vide et attendent d’être secourus, selon le gouvernorat d’Antalya.<br /><br />#Turquie #accident #téléphérique #stationbalneaire #Antalya<br /><br />https://www.lepoint.fr/monde/turquie-un-mort-et-dix-blesses-lors-d-un-accident-de-telepherique-dans-une-station-balneaire-13-04-2024-2557568_24.php<br /><br />Retrouvez-nous sur :<br /><br />- Youtube : https://www.youtube.com/c/lepoint/<br />- Facebook : https://www.facebook.com/lepoint.fr/<br />- Twitter : https://twitter.com/LePoint<br />- Instagram : https://www.instagram.com/lepointfr<br />- Tik Tok : https://www.tiktok.com/@lepointfr<br />- LinkedIn : https://www.linkedin.com/company/le-point/posts/<br />- www.lepoint.fr",
            "thumbnail_120_url": "https://s2.dmcdn.net/v/W7A5I1c6ficFMRPf2/x120",
            "created_time": 1713019686
        },
        {
            "id": "x8wr818",
            "title": "Antalya'daki teleferik kazasına ilişkin bilirkişi heyetinin hazırladığı ön rapor ortaya çıktı",
            "description": "Adalet Bakan Yılmaz Tunç, Antalya'da 1 kişinin hayatını kaybettiği teleferik kazasıyla ilgili bilirkişi heyetinin hazırladığı ön raporu açıkladı. Bakan Tunç, \"Bilirkişi heyetinin hazırladığı ön raporda olayın teleferiğin taşıyıcı direklerinin bağlantı noktalarında yer alan bağlantı elemanlarının yetersiz olması/korozyona uğraması ve taşıyıcı direklerde yer alan makara sistemlerinin hasarlı olması nedenleriyle taşıyıcı direğin bağlantı noktasından kırıldığı değerlendirilmektedir.\" dedi. <br><p>Antalya'daki teleferik kazasıyla ilgili bilirkişi heyetinin hazırladığı ön raporu açıklayan Adalet Bakanı Yılmaz Tunç, \"Bilirkişi heyetinin hazırladığı ön raporda olayın teleferiğin taşıyıcı direklerinin bağlantı noktalarında yer alan bağlantı elemanlarının yetersiz olması/korozyona uğraması ve taşıyıcı direklerde yer alan makara sistemlerinin hasarlı olması nedenleriyle taşıyıcı direğin bağlantı noktasından kırıldığı değerlendirilmektedir.\" ifadelerini kullandı.<br /><br />hbrlr1.com/cbfllybtkckckl</a>",
            "thumbnail_120_url": "https://s1.dmcdn.net/v/W7A5i1c6fifOohlNg/x120",
            "created_time": 1713019685
        },
        {
            "id": "x8wr80u",
            "title": "Reanuda RyanAir vuelos a Israel a partir de junio",
            "description": "RyanAir anunció que reanudará los vuelos a Israel a partir de principios de junio, cuatro meses después de que fueran cancelados",
            "thumbnail_120_url": "https://s2.dmcdn.net/v/W7A5U1c6fiTplIrY8/x120",
            "created_time": 1713019675
        },
        {
            "id": "x8wr80s",
            "title": "Antalya'daki teleferik kazasına ilişkin bilirkişi heyetinin hazırladığı ön rapor ortaya çıktı",
            "description": "Adalet Bakan Yılmaz Tunç, Antalya'da 1 kişinin hayatını kaybettiği teleferik kazasıyla ilgili bilirkişi heyetinin hazırladığı ön raporu açıkladı. Bakan Tunç, ''Bilirkişi heyetinin hazırladığı ön raporda olayın teleferiğin taşıyıcı direklerinin bağlantı noktalarında yer alan bağlantı elemanlarının yetersiz olması/korozyona uğraması ve taşıyıcı direklerde yer alan makara sistemlerinin hasarlı olması nedenleriyle taşıyıcı direğin bağlantı noktasından kırıldığı değerlendirilmektedir.'' ifadelerini kullandı. <br><p>Antalya'daki teleferik kazasıyla ilgili bilirkişi heyetinin hazırladığı ön raporu açıklayan Adalet Bakanı Yılmaz Tunç, \"Bilirkişi heyetinin hazırladığı ön raporda olayın teleferiğin taşıyıcı direklerinin bağlantı noktalarında yer alan bağlantı elemanlarının yetersiz olması/korozyona uğraması ve taşıyıcı direklerde yer alan makara sistemlerinin hasarlı olması nedenleriyle taşıyıcı direğin bağlantı noktasından kırıldığı değerlendirilmektedir.\" ifadelerini kullandı.<br /><br />hbrlr1.com/cbfllytakckckl</a>",
            "thumbnail_120_url": "https://s2.dmcdn.net/v/W7A5S1c6fiSXnkTAq/x120",
            "created_time": 1713019675
        },
        {
            "id": "x8wr80y",
            "title": "वाहन रैली में दिखाई महिलाओं ने शक्ति, इस कदर छाया उत्साह!",
            "description": "वाहन रैली में दिखाई महिलाओं ने शक्ति, इस कदर छाया उत्साह!",
            "thumbnail_120_url": "https://s2.dmcdn.net/v/W7A5Y1c6fiLwHb05k/x120",
            "created_time": 1713019666
        },
        {
            "id": "x8wr812",
            "title": "वाहन रैली में दिखाई महिलाओं ने शक्ति, इस कदर छाया उत्साह!",
            "description": "वाहन रैली में दिखाई महिलाओं ने शक्ति, इस कदर छाया उत्साह!",
            "thumbnail_120_url": "https://s1.dmcdn.net/v/W7A5c1c6fiNjFPkv6/x120",
            "created_time": 1713019663
        }
    ]
}
